1 10 20
100 200 125
201 210 89
900 1000 174
10 1 20
5000 6000 236
4000 4000 114
345 657 145
234 678 145
123 8999 262
10000 20000 279
500000 400000 449
999999 999999 259
8764 123456 354
1 1 1
59685 768798 509
4956 3021 238
578 99999 351
113 112 21
1 2 2
1 56 113
34 890 179
9999 9999 92
45678 32145 324
444333 444567 263
76532 121212 354
66789 11111 340
678901 11 509
15 19 21
2345 1234 183
2345 6789 262
9 9 20
4 5 6
4 3 8
3 2 8
5 7 17
4567 7654 262
999999 1 525
9098 809 262
123 321 131
87654 45678 351
444444 333333 449
32145 57482 340
1212 2323 183
123456 654321 509
76567 3 340
222 4 125
14565 544 276
3342 146 217
65489 999999 525
101 100 26
2000 3000 217
4000 5000 215
6000 7000 262
10 20 21
30 40 107
40 30 107
500 400 142
700 800 171
900 1000 174
1001 2001 182
10000 20000 279
4300 3400 238
54 689 145
1 100 119
4002 4555 215
23400 2 279
6 3 9
9 9 20
6999 9011 252
345 239 144
5421 9 238
12356 49999 324
15893 1222 276
2222 2222 33
341 123456 354
865843 999999 507
9090 3030 262
1287 6574 262
32356 74211 340
188 811 171
100 800 171
8 2 17
2222 9999 262
9009 12 262
5432 6789 262
8989 123 262
20000 20000 31
12 21 21
188 881 179
1678 8803 262
54576 234 340
1555 555 182
555 555 31
25 50 112
56 75 116
76 100 119
90 90 18
129 999998 525
1 500000 449
